<svg width="43" height="36" viewBox="0 0 43 36" fill="none" xmlns="http://www.w3.org/2000/svg">
<rect x="42.2222" width="3.72255" height="42.2236" rx="1.86128" transform="rotate(89.5387 42.2222 0)" fill="white"/>
<rect x="42.2222" y="10" width="3.72255" height="42.2236" rx="1.86128" transform="rotate(89.5387 42.2222 10)" fill="white"/>
<rect x="20.6494" y="19.1737" width="3.72255" height="20.6501" rx="1.86128" transform="rotate(89.5387 20.6494 19.1737)" fill="white"/>
<rect x="42.145" y="24" width="3.78138" height="20.1952" rx="1.89069" transform="rotate(89.5387 42.145 24)" fill="white"/>
<rect x="33.6916" y="35.9579" width="3.72255" height="18.9118" rx="1.86128" transform="rotate(-179.267 33.6916 35.9579)" fill="white"/>
<rect x="20.6494" y="29" width="3.72255" height="20.6501" rx="1.86128" transform="rotate(89.5387 20.6494 29)" fill="white"/>
</svg>
