<svg width="18" height="18" viewBox="0 0 18 18" fill="none" xmlns="http://www.w3.org/2000/svg">
<rect x="8" y="4" width="2" height="10" fill="#323232"/>
<rect x="14" y="8" width="2" height="10" transform="rotate(90 14 8)" fill="#323232"/>
<circle cx="9" cy="9" r="8" stroke="#323232" stroke-width="2"/>
</svg>
