<svg width="147" height="53" viewBox="0 0 147 53" fill="none" xmlns="http://www.w3.org/2000/svg">
<path d="M13.112 42.056C14.872 42.056 16.7347 41.6747 18.7 40.912C20.6947 40.1493 22.6307 39.152 24.508 37.92C26.3853 36.688 28.1013 35.3093 29.656 33.784C31.24 32.2587 32.5013 30.7333 33.44 29.208C31.8853 29.8533 30.1253 30.6453 28.16 31.584C26.1947 32.5227 24.2293 33.564 22.264 34.708C20.2987 35.8227 18.436 36.996 16.676 38.228C14.9453 39.46 13.508 40.7213 12.364 42.012C12.452 42.0413 12.584 42.056 12.76 42.056H13.112ZM34.98 25.336C35.0973 24.7787 35.0827 24.2507 34.936 23.752C34.6133 22.96 34.056 22.4613 33.264 22.256C32.5013 22.0507 31.7533 21.948 31.02 21.948C29.7587 21.948 28.468 22.08 27.148 22.344C25.8573 22.5787 24.552 22.9013 23.232 23.312C21.9413 23.6933 20.6507 24.1187 19.36 24.588C18.0987 25.0573 16.8813 25.5267 15.708 25.996C15.356 26.7 14.9893 27.4773 14.608 28.328C14.2267 29.1787 13.8747 30.044 13.552 30.924C13.2587 31.804 13.0093 32.684 12.804 33.564C12.5987 34.444 12.4813 35.2947 12.452 36.116L12.716 36.512C12.7453 36.5707 12.76 36.6147 12.76 36.644C16.2213 34.6493 19.7853 32.8453 23.452 31.232C27.1187 29.6187 30.8293 28.1227 34.584 26.744C34.76 26.304 34.892 25.8347 34.98 25.336ZM37.664 25.688C38.6907 25.3653 39.6147 25.072 40.436 24.808C41.2867 24.5147 42.0347 24.2507 42.68 24.016C43.9707 23.6053 44.9093 23.4 45.496 23.4C46.288 23.4 46.728 23.8107 46.816 24.632C46.816 24.7493 46.4493 24.9107 45.716 25.116C44.7773 25.4093 43.8533 25.7027 42.944 25.996C42.0347 26.26 41.1253 26.5093 40.216 26.744C39.7173 26.8907 39.2773 27.0227 38.896 27.14C38.544 27.2573 38.2507 27.36 38.016 27.448C38.104 28.504 37.972 29.56 37.62 30.616C37.18 31.848 36.5053 33.1093 35.596 34.4C34.716 35.6613 33.6747 36.8787 32.472 38.052C31.2693 39.196 29.964 40.2667 28.556 41.264C27.148 42.2907 25.696 43.1853 24.2 43.948C22.704 44.7107 21.1933 45.2973 19.668 45.708C18.172 46.148 16.7347 46.368 15.356 46.368C13.3613 46.368 11.8213 45.928 10.736 45.048C9.65067 44.1973 8.8 42.8773 8.184 41.088C8.06667 40.7653 8.08133 40.428 8.228 40.076C8.316 39.8413 8.50667 39.592 8.8 39.328C9.12267 39.0347 9.46 38.756 9.812 38.492C10.1933 38.228 10.56 37.9787 10.912 37.744C11.2933 37.5093 11.5867 37.3333 11.792 37.216C11.2933 36.776 10.7947 36.1747 10.296 35.412C9.79733 34.6493 9.47467 33.9307 9.328 33.256C9.24 32.7573 9.21067 32.3173 9.24 31.936C9.29867 31.1733 9.47467 30.264 9.768 29.208C10.0613 28.152 10.428 27.0373 10.868 25.864C11.3373 24.6907 11.8653 23.488 12.452 22.256C13.0387 21.024 13.6253 19.8213 14.212 18.648C14.828 17.4747 15.444 16.3893 16.06 15.392C16.676 14.3653 17.2333 13.5 17.732 12.796C17.82 12.6493 17.9373 12.488 18.084 12.312C18.2307 12.1067 18.392 11.9013 18.568 11.696C18.744 11.4907 18.92 11.3293 19.096 11.212C19.3013 11.0653 19.492 10.992 19.668 10.992C19.9613 10.992 20.24 11.124 20.504 11.388C20.7973 11.652 21.032 11.8867 21.208 12.092C21.3253 12.2387 21.4427 12.4 21.56 12.576C21.6773 12.7227 21.7947 12.8693 21.912 13.016C22.0293 13.1627 22.1173 13.3093 22.176 13.456C22.2347 13.5733 22.2933 13.676 22.352 13.764C22.3813 13.8227 22.4253 13.896 22.484 13.984C22.5427 14.072 22.6013 14.1747 22.66 14.292C22.7773 14.5267 22.8067 14.732 22.748 14.908C22.6893 15.0547 22.616 15.128 22.528 15.128C22.4693 15.128 22.4253 15.1133 22.396 15.084C22.22 15.172 21.9853 15.3773 21.692 15.7C21.3987 16.0227 21.1053 16.3893 20.812 16.8C20.548 17.1813 20.2987 17.548 20.064 17.9C19.8293 18.252 19.668 18.516 19.58 18.692C20.6067 18.1933 21.868 17.504 23.364 16.624C24.8893 15.7147 26.4 14.7173 27.896 13.632C29.4213 12.5173 30.8 11.3733 32.032 10.2C33.264 9.02667 34.1 7.89733 34.54 6.812C34.6867 6.40133 34.6867 6.04933 34.54 5.756C34.3933 5.43333 34.1293 5.184 33.748 5.008C33.3667 4.832 32.9413 4.7 32.472 4.612C32.0027 4.524 31.5333 4.46533 31.064 4.436C30.624 4.40667 30.2427 4.392 29.92 4.392C28.2773 4.392 26.4733 4.59733 24.508 5.008C22.5427 5.41867 20.5627 6.02 18.568 6.812C16.5733 7.57467 14.6373 8.51333 12.76 9.628C10.912 10.7427 9.25467 12.0187 7.788 13.456C6.35067 14.864 5.192 16.4187 4.312 18.12C3.432 19.8213 2.992 21.64 2.992 23.576C3.02133 23.6933 3.036 23.8107 3.036 23.928C3.036 24.016 3.036 24.104 3.036 24.192C3.036 24.456 3.05067 24.6467 3.08 24.764C3.08 25.116 2.992 25.292 2.816 25.292C2.61067 25.292 2.34667 25.1453 2.024 24.852C1.70133 24.5587 1.39333 24.2067 1.1 23.796C0.836 23.3853 0.601333 22.9747 0.396 22.564C0.190667 22.124 0.088 21.772 0.088 21.508C0.0586667 21.3027 0.0293333 21.112 0 20.936C0 20.7307 0 20.5253 0 20.32C0 18.2373 0.410667 16.316 1.232 14.556C2.05333 12.7667 3.15333 11.1387 4.532 9.672C5.94 8.20533 7.55333 6.91467 9.372 5.8C11.1907 4.656 13.0973 3.70266 15.092 2.94C17.0867 2.17733 19.1107 1.60533 21.164 1.224C23.2173 0.813331 25.1533 0.607998 26.972 0.607998C29.26 0.607998 31.2107 1.03333 32.824 1.884C34.4373 2.70533 35.7573 4.14266 36.784 6.196C37.1067 6.87067 37.3413 7.58933 37.488 8.352C37.576 8.90933 37.576 9.452 37.488 9.98C37.312 10.86 36.9013 11.74 36.256 12.62C35.64 13.5 34.9213 14.336 34.1 15.128C33.2787 15.92 32.4133 16.6533 31.504 17.328C30.5947 17.9733 29.788 18.516 29.084 18.956C31.196 19.132 32.9853 19.792 34.452 20.936C35.9187 22.08 36.9893 23.664 37.664 25.688ZM48.136 25.996C48.048 25.996 47.9893 25.9813 47.96 25.952C47.9893 25.952 48.004 25.9667 48.004 25.996C48.0333 25.996 48.0773 25.996 48.136 25.996ZM12.452 36.38C12.452 36.38 12.4813 36.4827 12.54 36.688L12.452 36.38ZM54.8422 29.208C54.6956 30.0587 54.5049 30.88 54.2702 31.672C53.9769 32.64 53.5809 33.6813 53.0822 34.796C52.6129 35.8813 52.0262 36.8933 51.3222 37.832C50.6182 38.7707 49.7969 39.5627 48.8582 40.208C47.9489 40.824 46.9222 41.132 45.7782 41.132C44.9569 41.132 44.1649 40.9413 43.4022 40.56C42.6396 40.1493 41.9649 39.636 41.3782 39.02C40.7916 38.404 40.3076 37.7147 39.9262 36.952C39.5449 36.16 39.3102 35.368 39.2222 34.576C39.1049 33.7253 39.1196 32.8893 39.2662 32.068C39.4129 31.2173 39.6036 30.3813 39.8382 29.56C39.9556 29.1787 40.1462 28.636 40.4102 27.932C40.6742 27.1987 40.9822 26.48 41.3342 25.776C41.7156 25.0427 42.1409 24.412 42.6102 23.884C43.0796 23.3267 43.5636 23.048 44.0622 23.048C44.3556 23.048 44.6489 23.1213 44.9422 23.268C45.2356 23.444 45.5142 23.664 45.7782 23.928C46.0422 24.1627 46.2769 24.412 46.4822 24.676C46.7169 24.94 46.9076 25.1747 47.0542 25.38C47.1422 25.4973 47.2449 25.6733 47.3622 25.908C47.5089 26.1427 47.5676 26.348 47.5382 26.524C47.5089 26.6707 47.4649 26.7587 47.4062 26.788C47.3476 26.788 47.2596 26.788 47.1422 26.788H47.0102C46.9809 26.788 46.9516 26.8027 46.9222 26.832C46.9222 26.832 46.9076 26.832 46.8782 26.832C46.6142 26.9787 46.3649 27.184 46.1302 27.448C45.9249 27.6827 45.7342 27.9173 45.5582 28.152C44.7076 29.472 44.0329 30.9387 43.5342 32.552C43.0649 34.1653 42.8302 35.764 42.8302 37.348C43.1236 37.348 43.4169 37.3187 43.7102 37.26C44.0036 37.2013 44.2822 37.128 44.5462 37.04C45.3969 36.688 46.1742 36.116 46.8782 35.324C47.6116 34.5027 48.2569 33.608 48.8142 32.64C49.3716 31.6427 49.8262 30.616 50.1782 29.56C50.5596 28.504 50.8382 27.5507 51.0142 26.7C51.2489 25.732 51.3369 24.7347 51.2782 23.708L51.2342 23.356C50.6476 23.3853 50.0609 23.488 49.4742 23.664C48.9169 23.8107 48.3742 24.0013 47.8462 24.236C47.7876 24.2653 47.6996 24.28 47.5822 24.28C47.3182 24.28 47.0249 24.1773 46.7022 23.972C46.4089 23.7373 46.1009 23.4733 45.7782 23.18C45.4849 22.8867 45.2062 22.5933 44.9422 22.3C44.7076 21.9773 44.5462 21.7133 44.4582 21.508C44.4582 21.4787 44.3996 21.3467 44.2822 21.112C44.1942 20.848 44.2236 20.6867 44.3702 20.628C44.9569 20.364 45.5729 20.1293 46.2182 19.924C46.8636 19.6893 47.5089 19.572 48.1542 19.572C49.0049 19.572 49.8262 19.792 50.6182 20.232C51.4102 20.672 52.1142 21.244 52.7302 21.948C53.3462 22.6227 53.8449 23.3853 54.2262 24.236C54.6076 25.0867 54.8422 25.908 54.9302 26.7C54.9889 27.5507 54.9596 28.3867 54.8422 29.208ZM71.1703 29.208C71.0237 30.0587 70.833 30.88 70.5983 31.672C70.305 32.64 69.909 33.6813 69.4103 34.796C68.941 35.8813 68.3543 36.8933 67.6503 37.832C66.9463 38.7707 66.125 39.5627 65.1863 40.208C64.277 40.824 63.2503 41.132 62.1063 41.132C61.285 41.132 60.493 40.9413 59.7303 40.56C58.9677 40.1493 58.293 39.636 57.7063 39.02C57.1197 38.404 56.6357 37.7147 56.2543 36.952C55.873 36.16 55.6383 35.368 55.5503 34.576C55.433 33.7253 55.4477 32.8893 55.5943 32.068C55.741 31.2173 55.9317 30.3813 56.1663 29.56C56.2837 29.1787 56.4743 28.636 56.7383 27.932C57.0023 27.1987 57.3103 26.48 57.6623 25.776C58.0437 25.0427 58.469 24.412 58.9383 23.884C59.4077 23.3267 59.8917 23.048 60.3903 23.048C60.6837 23.048 60.977 23.1213 61.2703 23.268C61.5637 23.444 61.8423 23.664 62.1063 23.928C62.3703 24.1627 62.605 24.412 62.8103 24.676C63.045 24.94 63.2357 25.1747 63.3823 25.38C63.4703 25.4973 63.573 25.6733 63.6903 25.908C63.837 26.1427 63.8957 26.348 63.8663 26.524C63.837 26.6707 63.793 26.7587 63.7343 26.788C63.6757 26.788 63.5877 26.788 63.4703 26.788H63.3383C63.309 26.788 63.2797 26.8027 63.2503 26.832C63.2503 26.832 63.2357 26.832 63.2063 26.832C62.9423 26.9787 62.693 27.184 62.4583 27.448C62.253 27.6827 62.0623 27.9173 61.8863 28.152C61.0357 29.472 60.361 30.9387 59.8623 32.552C59.393 34.1653 59.1583 35.764 59.1583 37.348C59.4517 37.348 59.745 37.3187 60.0383 37.26C60.3317 37.2013 60.6103 37.128 60.8743 37.04C61.725 36.688 62.5023 36.116 63.2063 35.324C63.9397 34.5027 64.585 33.608 65.1423 32.64C65.6997 31.6427 66.1543 30.616 66.5063 29.56C66.8877 28.504 67.1663 27.5507 67.3423 26.7C67.577 25.732 67.665 24.7347 67.6063 23.708L67.5623 23.356C66.9757 23.3853 66.389 23.488 65.8023 23.664C65.245 23.8107 64.7023 24.0013 64.1743 24.236C64.1157 24.2653 64.0277 24.28 63.9103 24.28C63.6463 24.28 63.353 24.1773 63.0303 23.972C62.737 23.7373 62.429 23.4733 62.1063 23.18C61.813 22.8867 61.5343 22.5933 61.2703 22.3C61.0357 21.9773 60.8743 21.7133 60.7863 21.508C60.7863 21.4787 60.7277 21.3467 60.6103 21.112C60.5223 20.848 60.5517 20.6867 60.6983 20.628C61.285 20.364 61.901 20.1293 62.5463 19.924C63.1917 19.6893 63.837 19.572 64.4823 19.572C65.333 19.572 66.1543 19.792 66.9463 20.232C67.7383 20.672 68.4423 21.244 69.0583 21.948C69.6743 22.6227 70.173 23.3853 70.5543 24.236C70.9357 25.0867 71.1703 25.908 71.2583 26.7C71.317 27.5507 71.2877 28.3867 71.1703 29.208ZM86.3545 17.548C86.8531 17.548 87.3225 17.6653 87.7625 17.9C88.2025 18.1347 88.5985 18.4133 88.9505 18.736C89.5078 19.2347 89.7131 19.924 89.5665 20.804C89.4491 21.6547 89.1265 22.5933 88.5985 23.62C88.0705 24.6173 87.4105 25.6587 86.6185 26.744C85.8558 27.8 85.0931 28.7827 84.3305 29.692C83.5678 30.6013 82.8785 31.3787 82.2625 32.024C81.6465 32.6693 81.2358 33.08 81.0305 33.256C80.8251 33.4613 80.6051 33.6667 80.3705 33.872C80.1651 34.048 79.9598 34.2533 79.7545 34.488C80.0185 34.752 80.3118 35.0453 80.6345 35.368C80.9865 35.6907 81.3531 36.0133 81.7345 36.336C82.1451 36.6293 82.5558 36.8787 82.9665 37.084C83.3771 37.2893 83.7731 37.392 84.1545 37.392C84.8585 37.392 85.5478 37.128 86.2225 36.6C86.8971 36.0427 87.5425 35.3533 88.1585 34.532C88.7745 33.7107 89.3465 32.8307 89.8745 31.892C90.4318 30.924 90.9158 30.044 91.3265 29.252C91.7665 28.4307 92.1185 27.7413 92.3825 27.184C92.6758 26.6267 92.8665 26.348 92.9545 26.348H93.2625C94.0838 26.348 94.5678 26.612 94.7145 27.14C94.8905 27.668 94.8171 28.3573 94.4945 29.208C94.2011 30.0587 93.7318 30.9973 93.0865 32.024C92.4411 33.0213 91.7225 34.0187 90.9305 35.016C90.1678 36.0133 89.3758 36.9227 88.5545 37.744C87.7625 38.5653 87.0731 39.196 86.4865 39.636C85.7825 40.1347 85.0785 40.5453 84.3745 40.868C83.6998 41.1613 83.0105 41.308 82.3065 41.308C81.2505 41.308 80.1945 40.8973 79.1385 40.076C78.1118 39.2253 77.0851 37.8027 76.0585 35.808C75.7358 36.5707 75.4278 37.348 75.1345 38.14C74.8411 38.932 74.5478 39.7533 74.2545 40.604C74.2545 40.5747 74.2398 40.6187 74.2105 40.736C74.1811 40.824 74.1225 40.9267 74.0345 41.044C73.9465 41.1907 73.8438 41.308 73.7265 41.396C73.6385 41.5133 73.5358 41.572 73.4185 41.572C73.2131 41.572 72.9638 41.484 72.6705 41.308C72.4065 41.132 72.1425 40.9267 71.8785 40.692C71.6145 40.428 71.3798 40.1787 71.1745 39.944C70.9398 39.68 70.7785 39.46 70.6905 39.284C70.6025 39.1373 70.4998 38.9613 70.3825 38.756C70.2651 38.5213 70.2211 38.3013 70.2505 38.096C70.5731 35.9547 71.0571 33.74 71.7025 31.452C72.3185 29.1347 73.0518 26.8467 73.9025 24.588C74.7531 22.3 75.6918 20.0853 76.7185 17.944C77.7451 15.7733 78.8158 13.7787 79.9305 11.96C80.2238 11.4613 80.6198 10.8307 81.1185 10.068C81.6171 9.30533 82.1598 8.572 82.7465 7.868C83.3625 7.13466 84.0078 6.51866 84.6825 6.02C85.3571 5.492 86.0318 5.228 86.7065 5.228C87.3518 5.228 87.9531 5.492 88.5105 6.02C89.0678 6.548 89.5078 7.06133 89.8305 7.56C89.9185 7.70666 90.0211 7.89733 90.1385 8.132C90.2558 8.36667 90.2851 8.572 90.2265 8.748C90.1971 8.95333 90.0651 9.056 89.8305 9.056C89.7425 9.056 89.6838 9.04133 89.6545 9.012C89.3611 9.07067 89.1118 9.12933 88.9065 9.188C88.2318 9.51067 87.5278 10.068 86.7945 10.86C86.0905 11.6227 85.3865 12.5173 84.6825 13.544C84.0078 14.5413 83.3331 15.6413 82.6585 16.844C82.0131 18.0173 81.4118 19.176 80.8545 20.32C80.2971 21.464 79.7985 22.5493 79.3585 23.576C78.9185 24.5733 78.5665 25.4093 78.3025 26.084C78.1558 26.4653 78.0385 26.788 77.9505 27.052C77.8918 27.2867 77.8331 27.492 77.7745 27.668C77.7158 27.844 77.6865 27.9907 77.6865 28.108C78.7718 26.348 79.7838 24.764 80.7225 23.356C81.1331 22.74 81.5291 22.1387 81.9105 21.552C82.3211 20.9653 82.6878 20.4373 83.0105 19.968C83.3625 19.4987 83.6705 19.1027 83.9345 18.78C84.2278 18.4573 84.4331 18.252 84.5505 18.164C84.8438 18.0173 85.1371 17.8853 85.4305 17.768C85.7238 17.6213 86.0318 17.548 86.3545 17.548ZM84.1105 23.048C84.5798 22.3147 84.7705 21.948 84.6825 21.948L84.4625 22.08C83.5238 22.9307 82.4531 24.192 81.2505 25.864C80.0771 27.5067 78.8305 29.7213 77.5105 32.508C78.1851 31.5107 78.9625 30.396 79.8425 29.164C80.6931 27.9613 81.4851 26.832 82.2185 25.776C82.9811 24.6907 83.6118 23.7813 84.1105 23.048ZM104.171 20.408C104.23 20.496 104.289 20.628 104.347 20.804C104.435 20.98 104.523 21.1853 104.611 21.42C104.699 21.6253 104.758 21.8307 104.787 22.036C104.846 22.212 104.861 22.3587 104.831 22.476C104.773 22.652 104.699 22.7693 104.611 22.828C104.523 22.8573 104.406 22.872 104.259 22.872C103.555 22.872 102.763 22.96 101.883 23.136C100.974 23.312 100.079 23.5613 99.1994 23.884C98.3194 24.2067 97.5127 24.6173 96.7794 25.116C96.046 25.6147 95.5034 26.2013 95.1514 26.876C95.0927 27.0227 95.034 27.1987 94.9754 27.404C94.9167 27.58 94.9314 27.8733 95.0194 28.284C95.1367 28.6653 95.3714 29.1787 95.7234 29.824C96.0754 30.44 96.618 31.2613 97.3514 32.288C97.938 31.8773 98.6714 31.3933 99.5514 30.836C100.431 30.2493 101.282 29.6773 102.103 29.12C102.954 28.5627 103.702 28.0787 104.347 27.668C104.993 27.228 105.389 26.9493 105.535 26.832C105.741 26.6853 105.975 26.612 106.239 26.612H106.283C106.606 26.6413 106.811 26.8173 106.899 27.14C107.017 27.4333 106.943 27.6827 106.679 27.888C105.301 28.944 103.922 29.912 102.543 30.792C101.194 31.6427 99.8154 32.6107 98.4074 33.696C98.818 34.224 99.2287 34.7667 99.6394 35.324C100.05 35.8813 100.417 36.4533 100.739 37.04C100.886 37.304 101.018 37.6413 101.135 38.052C101.282 38.4627 101.341 38.932 101.311 39.46C101.311 39.9587 101.194 40.5013 100.959 41.088C100.725 41.6747 100.314 42.2613 99.7274 42.848C99.3167 43.2587 98.7447 43.6987 98.0114 44.168C97.3074 44.6667 96.5447 45.1213 95.7234 45.532C94.902 45.9427 94.0807 46.28 93.2594 46.544C92.438 46.808 91.7194 46.94 91.1034 46.94C90.6047 46.94 90.1354 46.8373 89.6954 46.632C89.2847 46.456 88.874 46.1773 88.4634 45.796L87.7594 45.136C87.5247 44.872 87.3047 44.5787 87.0994 44.256C86.894 43.9627 86.762 43.64 86.7034 43.288C86.6154 42.9653 86.6447 42.628 86.7914 42.276C86.9967 41.7187 87.334 41.176 87.8034 40.648C88.39 39.944 89.0207 39.284 89.6954 38.668C90.3994 38.0227 91.0887 37.4067 91.7634 36.82C92.3794 36.2627 92.9954 35.7493 93.6114 35.28C94.2567 34.7813 94.9167 34.2827 95.5914 33.784C95.386 33.52 95.1367 33.1827 94.8434 32.772C94.55 32.332 94.242 31.892 93.9194 31.452C93.626 31.012 93.3327 30.572 93.0394 30.132C92.7754 29.692 92.5554 29.3107 92.3794 28.988C91.7927 27.9907 91.4994 27.0667 91.4994 26.216C91.5287 25.336 91.7194 24.5 92.0714 23.708C92.4234 22.9453 92.922 22.2413 93.5674 21.596C94.2127 20.9507 94.9314 20.3933 95.7234 19.924C96.5447 19.4547 97.3954 19.088 98.2754 18.824C99.1554 18.5307 99.9914 18.384 100.783 18.384C101.634 18.384 102.294 18.5307 102.763 18.824C103.233 19.1173 103.702 19.6453 104.171 20.408ZM88.1554 42.892C88.8594 42.804 89.7394 42.5987 90.7954 42.276C91.8514 41.9827 92.878 41.5867 93.8754 41.088C94.8727 40.5893 95.7234 40.0027 96.4274 39.328C97.1607 38.624 97.5714 37.8613 97.6594 37.04C97.6594 36.8933 97.6154 36.732 97.5274 36.556C97.4687 36.38 97.3807 36.204 97.2634 36.028C97.1754 35.8227 97.0727 35.6467 96.9554 35.5C96.838 35.324 96.75 35.2067 96.6914 35.148C94.8434 36.82 93.186 38.3013 91.7194 39.592C90.282 40.8533 89.094 41.9533 88.1554 42.892ZM123.089 25.732C123.235 25.6733 123.382 25.644 123.529 25.644C123.734 25.644 123.91 25.7173 124.057 25.864C124.233 25.9813 124.365 26.128 124.453 26.304C124.541 26.48 124.585 26.656 124.585 26.832C124.614 27.008 124.585 27.1547 124.497 27.272C124.409 27.3893 124.071 27.8293 123.485 28.592C122.898 29.3253 122.15 30.2053 121.241 31.232C120.331 32.2587 119.305 33.3587 118.161 34.532C117.017 35.676 115.843 36.732 114.641 37.7C113.467 38.668 112.309 39.4747 111.165 40.12C110.05 40.736 109.038 41.0293 108.129 41C107.043 40.9707 106.149 40.736 105.445 40.296C104.741 39.856 104.198 39.328 103.817 38.712C103.406 38.1253 103.127 37.4947 102.981 36.82C102.805 36.1453 102.731 35.5587 102.761 35.06C102.849 33.652 103.186 32.0827 103.773 30.352C104.389 28.592 105.195 26.9493 106.193 25.424C107.219 23.8987 108.393 22.6227 109.713 21.596C111.062 20.54 112.499 20.012 114.025 20.012C114.435 20.012 114.905 20.144 115.433 20.408C115.99 20.6427 116.518 20.9507 117.017 21.332C117.545 21.7133 118.014 22.124 118.425 22.564C118.865 23.004 119.173 23.4 119.349 23.752C119.554 24.1333 119.642 24.544 119.613 24.984C119.613 25.3947 119.539 25.8053 119.393 26.216C119.187 26.92 118.865 27.624 118.425 28.328C117.985 29.032 117.471 29.6773 116.885 30.264C116.298 30.8213 115.638 31.276 114.905 31.628C114.171 31.98 113.409 32.156 112.617 32.156C111.913 32.156 111.223 31.9507 110.549 31.54C109.874 31.1293 109.273 30.704 108.745 30.264C108.217 31.2907 107.747 32.3467 107.337 33.432C106.955 34.5173 106.691 35.632 106.545 36.776C106.486 37.2453 106.603 37.5973 106.897 37.832C107.19 38.0667 107.513 38.184 107.865 38.184C108.539 38.184 109.361 37.8907 110.329 37.304C111.297 36.7173 112.309 35.984 113.365 35.104C114.45 34.224 115.521 33.2707 116.577 32.244C117.662 31.2173 118.63 30.2493 119.481 29.34C120.361 28.4307 121.079 27.668 121.637 27.052C122.223 26.436 122.546 26.0987 122.605 26.04C122.751 25.8933 122.913 25.7907 123.089 25.732ZM109.361 29.208C110.065 29.208 110.769 29.0173 111.473 28.636C112.147 28.2547 112.763 27.7853 113.321 27.228C113.907 26.6413 114.406 25.996 114.817 25.292C115.257 24.588 115.565 23.928 115.741 23.312C114.333 23.8107 113.101 24.6173 112.045 25.732C110.989 26.8173 110.094 27.976 109.361 29.208ZM117.933 35.588C118.402 32.244 119.223 28.988 120.397 25.82C121.57 22.6227 122.949 19.5427 124.533 16.58C124.679 16.316 124.929 15.876 125.281 15.26C125.633 14.644 126.043 13.9547 126.513 13.192C127.011 12.4 127.539 11.5933 128.097 10.772C128.654 9.92133 129.211 9.144 129.769 8.44C130.297 7.76533 130.795 7.208 131.265 6.768C131.734 6.29866 132.13 6.064 132.453 6.064C132.687 6.064 132.966 6.18133 133.289 6.416C133.611 6.62133 133.919 6.87066 134.213 7.164C134.506 7.45733 134.77 7.76533 135.005 8.088C135.269 8.38133 135.445 8.63067 135.533 8.836C135.562 8.86533 135.621 9.012 135.709 9.276C135.826 9.51066 135.811 9.65733 135.665 9.716C135.313 9.92133 134.99 10.1707 134.697 10.464C134.433 10.728 134.169 11.0067 133.905 11.3C132.937 12.3853 131.939 13.6907 130.913 15.216C129.915 16.7413 128.947 18.384 128.009 20.144C127.099 21.904 126.234 23.752 125.413 25.688C124.621 27.624 123.917 29.5453 123.301 31.452C122.714 33.3293 122.245 35.1773 121.893 36.996C121.541 38.7853 121.365 40.428 121.365 41.924C121.394 42.1587 121.409 42.3787 121.409 42.584C121.409 42.7893 121.423 43.0093 121.453 43.244L121.497 43.332V43.552C121.497 43.6107 121.497 43.6547 121.497 43.684C121.526 43.7133 121.541 43.7573 121.541 43.816C121.599 43.992 121.643 44.168 121.673 44.344C121.702 44.5493 121.746 44.74 121.805 44.916C122.245 45.356 122.567 45.796 122.773 46.236C122.831 46.324 122.89 46.4707 122.949 46.676C123.037 46.8813 123.022 47.0427 122.905 47.16C122.875 47.2187 122.787 47.248 122.641 47.248C122.523 47.248 122.391 47.2187 122.245 47.16C122.127 47.1307 122.039 47.0867 121.981 47.028C120.983 46.412 120.133 45.6347 119.429 44.696C118.725 43.7573 118.255 42.716 118.021 41.572C117.786 40.5747 117.683 39.5773 117.713 38.58C117.713 37.5827 117.786 36.5853 117.933 35.588ZM139.513 22.036C139.806 22.036 140.099 22.0507 140.393 22.08C140.686 22.1093 140.979 22.1533 141.273 22.212C141.713 22.3 142.167 22.5053 142.637 22.828C143.135 23.1213 143.605 23.4733 144.045 23.884C144.485 24.2653 144.881 24.676 145.233 25.116C145.585 25.556 145.863 25.9667 146.069 26.348C146.127 26.4653 146.157 26.568 146.157 26.656C146.186 26.7147 146.127 26.7587 145.981 26.788C145.834 26.7293 145.643 26.612 145.409 26.436L145.013 26.128C144.954 26.0987 144.91 26.0693 144.881 26.04C144.881 26.0107 144.851 25.9813 144.793 25.952C144.147 25.776 143.443 25.688 142.681 25.688C141.097 25.688 139.41 25.908 137.621 26.348C135.861 26.788 134.262 27.316 132.825 27.932C132.59 28.548 132.37 29.164 132.165 29.78C131.959 30.396 131.754 31.0267 131.549 31.672C132.37 32.4933 133.045 33.3 133.573 34.092C134.101 34.8547 134.497 35.808 134.761 36.952C134.995 38.008 135.127 39.0933 135.157 40.208C135.186 41.2933 135.142 42.364 135.025 43.42C134.907 44.5053 134.731 45.576 134.497 46.632C134.291 47.7173 133.983 48.7587 133.573 49.756L133.133 50.636C132.957 50.988 132.737 51.3107 132.473 51.604C132.238 51.9267 131.974 52.1907 131.681 52.396C131.417 52.6307 131.123 52.748 130.801 52.748C130.595 52.748 130.375 52.6747 130.141 52.528C129.906 52.4107 129.671 52.2493 129.437 52.044C129.202 51.868 128.982 51.6773 128.777 51.472C128.601 51.2667 128.439 51.0907 128.293 50.944C127.677 50.2987 127.193 49.6973 126.841 49.14C126.489 48.5827 126.195 47.8787 125.961 47.028C125.726 46.0893 125.579 45.1507 125.521 44.212C125.462 43.2733 125.462 42.3347 125.521 41.396C125.579 39.548 125.77 37.7293 126.093 35.94C126.386 34.1213 126.782 32.3173 127.281 30.528C127.134 30.3813 126.958 30.1907 126.753 29.956C126.547 29.7213 126.357 29.472 126.181 29.208C125.975 28.944 125.814 28.68 125.697 28.416C125.55 28.152 125.477 27.9173 125.477 27.712C125.477 27.3013 125.623 26.92 125.917 26.568C126.21 26.216 126.562 25.908 126.973 25.644C127.354 25.3507 127.765 25.0867 128.205 24.852C128.674 24.6173 129.055 24.4413 129.349 24.324C129.994 22.6227 130.698 20.9507 131.461 19.308C132.223 17.6653 133.074 16.052 134.013 14.468C134.101 14.3213 134.277 14.0427 134.541 13.632C134.834 13.2213 135.142 12.796 135.465 12.356C135.787 11.916 136.095 11.52 136.389 11.168C136.711 10.816 136.961 10.64 137.137 10.64C137.313 10.64 137.547 10.772 137.841 11.036C138.163 11.3 138.486 11.5933 138.809 11.916C139.131 12.2387 139.425 12.5613 139.689 12.884C139.953 13.2067 140.129 13.4267 140.217 13.544C140.305 13.6613 140.378 13.7787 140.437 13.896C140.554 14.1307 140.583 14.2627 140.525 14.292C140.055 14.6147 139.557 15.128 139.029 15.832C138.501 16.536 137.987 17.3133 137.489 18.164C136.99 18.9853 136.535 19.792 136.125 20.584C135.714 21.376 135.391 22.0213 135.157 22.52C135.861 22.3733 136.579 22.256 137.313 22.168C138.046 22.08 138.779 22.036 139.513 22.036ZM131.417 34.752C131.358 34.488 131.299 34.224 131.241 33.96C131.211 33.696 131.167 33.432 131.109 33.168C130.698 34.488 130.346 35.808 130.053 37.128C129.789 38.4187 129.554 39.7387 129.349 41.088C129.202 42.1733 129.099 43.2587 129.041 44.344C128.982 45.4293 128.997 46.5293 129.085 47.644C129.085 47.6733 129.085 47.7027 129.085 47.732C129.114 47.7613 129.129 47.8053 129.129 47.864C129.481 47.3653 129.789 46.7787 130.053 46.104C130.346 45.4587 130.581 44.7693 130.757 44.036C130.962 43.332 131.123 42.6133 131.241 41.88C131.358 41.176 131.446 40.5307 131.505 39.944C131.563 39.0933 131.593 38.228 131.593 37.348C131.622 36.468 131.563 35.6027 131.417 34.752Z" fill="#323232"/>
</svg>
